{
    "KPlugin": {
        "Authors": [
            {
                "Email": "joris.guisson@gmail.com",
                "Name": "Lesly Weyts, Kevin Andre and Joris Guisson",
                "Name[ca@valencia]": "Lesly Weyts, Kevin Andre i Joris Guisson",
                "Name[ca]": "Lesly Weyts, Kevin Andre i Joris Guisson",
                "Name[cs]": "Lesly Weyts, Kevin Andre a Joris Guisson",
                "Name[de]": "Lesly Weyts, Kevin Andre und Joris Guisson",
                "Name[en_GB]": "Lesly Weyts, Kevin Andre and Joris Guisson",
                "Name[es]": "Lesly Weyts, Kevin Andre and Joris Guisson",
                "Name[eu]": "Lesly Weyts, Kevin Andre eta Joris Guisson",
                "Name[fi]": "Lesly Weyts, Kevin Andre ja Joris Guisson",
                "Name[fr]": "Lesly Weyts, Kevin Andre et Joris Guisson",
                "Name[hu]": "Lesly Weyts, Kevin Andre és Joris Guisson",
                "Name[ia]": "Lesly Weyts, Kevin Andre e Joris Guisson",
                "Name[it]": "Lesly Weyts, Kevin Andre and Joris Guisson",
                "Name[ka]": "Lesly Weyts, Kevin Andre and Joris Guisson",
                "Name[ko]": "Lesly Weyts, Kevin Andre, Joris Guisson",
                "Name[nl]": "Lesly Weyts, Kevin Andre en Joris Guisson",
                "Name[pl]": "Lesly Weyts, Kevin Andre oraz Joris Guisson",
                "Name[pt]": "Lesly Weyts, Kevin Andre e Joris Guisson",
                "Name[pt_BR]": "Lesly Weyts, Kevin Andre e Joris Guisson",
                "Name[ru]": "Lesly Weyts, Kevin Andre и Joris Guisson",
                "Name[sl]": "Lesly Weyts, Kevin Andre in Joris Guisson",
                "Name[sv]": "Lesly Weyts, Kevin Andre och Joris Guisson",
                "Name[tr]": "Lesly Weyts, Kevin Andre ve Joris Guisson",
                "Name[uk]": "Lesly Weyts, Kevin Andre і Joris Guisson",
                "Name[x-test]": "xxLesly Weyts, Kevin Andre and Joris Guissonxx",
                "Name[zh_CN]": "Lesly Weyts、Kevin Andre、Joris Guisson"
            }
        ],
        "Description": "Discover peers on the local network using the Zeroconf protocol",
        "Description[ca@valencia]": "Descobrix els parells a la xarxa local utilitzant el protocol Zeroconf",
        "Description[ca]": "Descobreix els parells a la xarxa local usant el protocol Zeroconf",
        "Description[cs]": "Hledání protějšků na lokální síti s pomocí protokolu Zeroconf",
        "Description[de]": "Gegenstellen im lokalen Netzwerk unter Verwendung des Zeroconf-Protokolls auffinden",
        "Description[en_GB]": "Discover peers on the local network using the Zeroconf protocol",
        "Description[es]": "Descubre compañeros en la red local usando el protocolo Zeroconf",
        "Description[eu]": "Aurkitu parekoak sare lokalean Zeroconf protokoloa erabiliz",
        "Description[fi]": "Etsii käyttäjiä paikallisverkosta Zeroconf-yhteyskäytännöllä",
        "Description[fr]": "Découvrir des pairs sur le réseau local grâce au protocole « Zeroconf »",
        "Description[hu]": "Partnerek keresése a helyi hálózaton a Zeroconf protokollal",
        "Description[it]": "Scopri i nodi nella rete locale attraverso il protocollo Zeroconf",
        "Description[ko]": "Zeroconf 프로토콜로 로컬 네트워크의 피어 찾기",
        "Description[nl]": "Ontdek peers op een lokaal netwerk met behulp van het zeroconf-protocol",
        "Description[pl]": "Wyszukiwanie rozsiewających w sieci lokalnej na podstawie protokołu Zeroconf",
        "Description[pt]": "Descobrir pontos na rede local com o protocolo Zeroconf",
        "Description[pt_BR]": "Descobre pares na rede local, usando o protocolo Zeroconf",
        "Description[ru]": "Обнаружение участников в локальной сети по протоколу ZeroConf",
        "Description[sl]": "Odkrij vrstnike v krajevnem omrežju s pomočjo protokola ZeroConf",
        "Description[sv]": "Upptäck deltagare i det lokala nätverket med protokollet Zeroconf",
        "Description[tr]": "Zeroconf protokolünü kullanarak yerel ağdaki paylaşımcıları bul",
        "Description[uk]": "Виявляє вузли у локальній мережі за допомогою протоколу Zeroconf",
        "Description[x-test]": "xxDiscover peers on the local network using the Zeroconf protocolxx",
        "Description[zh_CN]": "通过 zeroconf 协议在本地网络探索对等点",
        "EnabledByDefault": false,
        "Icon": "preferences-plugin",
        "Id": "ZeroconfPlugin",
        "License": "GPL",
        "Name": "Zeroconf",
        "Name[bg]": "Zeroconf",
        "Name[bs]": "Zeroconf",
        "Name[ca@valencia]": "Zeroconf",
        "Name[ca]": "Zeroconf",
        "Name[cs]": "Zeroconf",
        "Name[da]": "Zeroconf",
        "Name[de]": "ZeroConf",
        "Name[el]": "Zeroconf",
        "Name[en_GB]": "Zeroconf",
        "Name[es]": "Zeroconf",
        "Name[et]": "ZeroConf",
        "Name[eu]": "Zeroconf",
        "Name[fi]": "Zeroconf",
        "Name[fr]": "Zeroconf",
        "Name[ga]": "Zeroconf",
        "Name[gl]": "Zeroconf",
        "Name[hr]": "Zeroconf",
        "Name[hu]": "Zeroconf",
        "Name[ia]": "Zeroconf",
        "Name[is]": "Zeroconf",
        "Name[it]": "ZeroConf",
        "Name[ja]": "Zeroconf",
        "Name[ka]": "Zeroconf",
        "Name[kk]": "Zeroconf",
        "Name[km]": "Zeroconf",
        "Name[ko]": "Zeroconf",
        "Name[lt]": "ZeroConf",
        "Name[lv]": "Zeroconf",
        "Name[nb]": "Zeroconf",
        "Name[nds]": "Zeroconf",
        "Name[nl]": "Zeroconf",
        "Name[nn]": "Zeroconf",
        "Name[pl]": "Zeroconf",
        "Name[pt]": "ZeroConf",
        "Name[pt_BR]": "Zeroconf",
        "Name[ro]": "ZeroConf",
        "Name[ru]": "Zeroconf",
        "Name[si]": "Zeroconf",
        "Name[sk]": "Zeroconf",
        "Name[sl]": "Zeroconf",
        "Name[sq]": "Zeroconf",
        "Name[sr@ijekavian]": "Зироконф",
        "Name[sr@ijekavianlatin]": "ZeroConf",
        "Name[sr@latin]": "ZeroConf",
        "Name[sr]": "Зироконф",
        "Name[sv]": "Zeroconf",
        "Name[tr]": "ZeroConf",
        "Name[ug]": "Zeroconf",
        "Name[uk]": "Zeroconf",
        "Name[x-test]": "xxZeroconfxx",
        "Name[zh_CN]": "Zeroconf",
        "Name[zh_TW]": "ZeroConf",
        "Version": "0.1",
        "Website": "http://kde.org/applications/internet/ktorrent/"
    }
}
